         root node
        /                \
     0.2              0.2
   /      \           /       \ 
0.1    0.2     0.0     0.3


         root node
        /                \
     0.3              0.1
   /      \           /       \ 
0.1    0.3     0.1     0.1
